{
  "collectionName": "components_page_pointers",
  "info": {
    "name": "pointer",
    "icon": "bullseye",
    "description": ""
  },
  "options": {},
  "attributes": {
    "orientation": {
      "type": "enumeration",
      "enum": [
        "top",
        "right",
        "bottom",
        "left"
      ]
    },
    "thickness": {
      "type": "decimal",
      "default": -1
    },
    "direction": {
      "type": "component",
      "repeatable": false,
      "component": "page.direction"
    }
  }
}
