{
  "routes": [
    {
      "method": "GET",
      "path": "/assesments",
      "handler": "assesments.find",
      "config": {
        "policies": []
      }
    },
    {
      "method": "GET",
      "path": "/assesments/count",
      "handler": "assesments.count",
      "config": {
        "policies": []
      }
    },
    {
      "method": "GET",
      "path": "/assesments/:id",
      "handler": "assesments.findOne",
      "config": {
        "policies": []
      }
    },
    {
      "method": "POST",
      "path": "/assesments",
      "handler": "assesments.create",
      "config": {
        "policies": []
      }
    },
    {
      "method": "PUT",
      "path": "/assesments/:id",
      "handler": "assesments.update",
      "config": {
        "policies": []
      }
    },
    {
      "method": "DELETE",
      "path": "/assesments/:id",
      "handler": "assesments.delete",
      "config": {
        "policies": []
      }
    }
  ]
}
